…
``` r
##For research question 3, we'll do Summarizing 2 and Graphing 8

##How many trees were planted per year?
vancouver_trees_y <- vancouver_trees_r %>%
  mutate(Y = format(date_planted, format = "%Y")) %>%
  group_by(Y) %>%
  count(Y) %>%
  filter(!is.na(Y))

##Trees planted per year below
print(vancouver_trees_y)
```

    ## # A tibble: 31 × 2
    ## # Groups:   Y [31]
    ##    Y         n
    ##    <chr> <int>
    ##  1 1989    300
    ##  2 1990   1145
    ##  3 1991    579
    ##  4 1992   1759
    ##  5 1993   2128
    ##  6 1994   1879
    ##  7 1995   2912
    ##  8 1996   3079
    ##  9 1997   2778
    ## 10 1998   3581
    ## # … with 21 more rows
…
    ## `summarise()` has grouped output by 'genus_name'. You can override using the
    ## `.groups` argument.

``` r
print(genus_region)
```

    ## # A tibble: 323 × 4
    ## # Groups:   genus_name [97]
    ##    genus_name          Region    Mean    SD
    ##    <chr>               <chr>    <dbl> <dbl>
    ##  1 SEQUOIA             Central   59   NA   
    ##  2 CUPRESSOCYPARIS   X West      49   NA   
    ##  3 PTEROCARYA          Downtown  44   NA   
    ##  4 CASTANEA            Central   34.3 22.5 
    ##  5 ARAUCARIA           East      28.5  4.95
    ##  6 CASTANEA            Downtown  28   NA   
    ##  7 JUNIPERUS           Central   26.9 17.0 
    ##  8 PLATANUS            West      26.7 10.7 
    ##  9 POPULUS             Downtown  26.5 12.1 
    ## 10 CATALPA             West      26.3  8.34
    ## # … with 313 more rows
…
